\relax 
\citation{MPP}
\citation{kwiatkowski/stark:continuous-pi}
\citation{Milner}
\@writefile{toc}{\contentsline {section}{\numberline {1}Introduction}{1}}
\@writefile{toc}{\contentsline {subsection}{\numberline {1.1}Purpose}{1}}
\@writefile{toc}{\contentsline {subsection}{\numberline {1.2}Outline}{1}}
\@writefile{toc}{\contentsline {section}{\numberline {2}Background}{1}}
\@writefile{toc}{\contentsline {subsection}{\numberline {2.1}Continuous $\pi $-calculus}{1}}
\citation{CPIWB}
\citation{MPP}
\@writefile{lof}{\contentsline {figure}{\numberline {1}{\ignorespaces Plot of Example Systems}}{2}}
\@writefile{toc}{\contentsline {subsection}{\numberline {2.2}Cpi Workbench}{2}}
\citation{MPP}
\@writefile{lof}{\contentsline {figure}{\numberline {2}{\ignorespaces Cpi Workbench}}{3}}
\@writefile{toc}{\contentsline {section}{\numberline {3}Specification and Design}{3}}
\@writefile{toc}{\contentsline {subsection}{\numberline {3.1}Functionality}{3}}
\citation{GTK2HS}
\citation{GTK}
\citation{GLADE}
\@writefile{lof}{\contentsline {figure}{\numberline {3}{\ignorespaces Features specified in planning report}}{4}}
\@writefile{lof}{\contentsline {figure}{\numberline {4}{\ignorespaces Mock up of application}}{4}}
\@writefile{toc}{\contentsline {subsection}{\numberline {3.2}Layout}{4}}
\@writefile{toc}{\contentsline {section}{\numberline {4}Implementation}{4}}
\@writefile{toc}{\contentsline {subsection}{\numberline {4.1}Architecture}{4}}
\@writefile{lof}{\contentsline {figure}{\numberline {5}{\ignorespaces Cpi IDE}}{5}}
\@writefile{toc}{\contentsline {subsection}{\numberline {4.2}Design}{5}}
\@writefile{toc}{\contentsline {subsection}{\numberline {4.3}Implementation}{5}}
\@writefile{toc}{\contentsline {subsubsection}{\numberline {4.3.1}Viewing and Editing models}{5}}
\@writefile{lof}{\contentsline {figure}{\numberline {6}{\ignorespaces File Open Dialogue}}{6}}
\@writefile{toc}{\contentsline {subsubsection}{\numberline {4.3.2}Static Analysis}{6}}
\@writefile{toc}{\contentsline {subsubsection}{\numberline {4.3.3}Dynamic Analysis}{6}}
\citation{MPP}
\citation{FFSE}
\@writefile{toc}{\contentsline {section}{\numberline {5}Evaluation}{7}}
\@writefile{toc}{\contentsline {subsection}{\numberline {5.1}Functionality}{7}}
\@writefile{toc}{\contentsline {subsection}{\numberline {5.2}Scope}{7}}
\@writefile{toc}{\contentsline {subsection}{\numberline {5.3}Challenges}{8}}
\@writefile{toc}{\contentsline {section}{\numberline {6}Goals}{8}}
\@writefile{toc}{\contentsline {subsection}{\numberline {6.1}Definite Goals}{8}}
\@writefile{toc}{\contentsline {subsection}{\numberline {6.2}Potential extensions}{9}}
\@writefile{toc}{\contentsline {subsection}{\numberline {6.3}Summary}{10}}
\bibstyle{plain}
\bibdata{references}
\@writefile{lof}{\contentsline {figure}{\numberline {7}{\ignorespaces Monthly Goals for Phase 2 of the Project}}{11}}
\@writefile{toc}{\contentsline {section}{\numberline {7}Workplan}{11}}
\@writefile{toc}{\contentsline {subsection}{\numberline {7.1}Time-line}{11}}
\bibcite{GTK2HS}{{1}{}{{}}{{}}}
\bibcite{CPIWB}{{2}{}{{}}{{}}}
\bibcite{FFSE}{{3}{}{{}}{{}}}
\bibcite{kwiatkowski/stark:continuous-pi}{{4}{}{{}}{{}}}
\bibcite{MPP}{{5}{}{{}}{{}}}
\bibcite{Milner}{{6}{}{{}}{{}}}
\bibcite{GTK}{{7}{}{{}}{{}}}
\providecommand\NAT@force@numbers{}\NAT@force@numbers
