This is BibTeX, Version 0.99d (TeX Live 2012/Debian)
Capacity: max_strings=35307, hash_size=35307, hash_prime=30011
The top-level auxiliary file: cpiIDE.aux
The style file: plain.bst
Database file #1: references.bib
Warning--I didn't find a database entry for "GLADE"
Warning--to sort, need author or key in GTK2HS
Warning--empty note in MPP
You've used 7 entries,
            2118 wiz_defined-function locations,
            538 strings with 4864 characters,
and the built_in function-call counts, 1653 in all, are:
= -- 160
> -- 49
< -- 2
+ -- 24
- -- 14
* -- 70
:= -- 264
add.period$ -- 19
call.type$ -- 7
change.case$ -- 27
chr.to.int$ -- 0
cite$ -- 9
duplicate$ -- 69
empty$ -- 164
format.name$ -- 14
if$ -- 365
int.to.chr$ -- 0
int.to.str$ -- 7
missing$ -- 3
newline$ -- 35
num.names$ -- 12
pop$ -- 49
preamble$ -- 1
purify$ -- 21
quote$ -- 0
skip$ -- 62
stack$ -- 0
substring$ -- 70
swap$ -- 17
text.length$ -- 2
text.prefix$ -- 0
top$ -- 0
type$ -- 26
warning$ -- 2
while$ -- 15
width$ -- 8
write$ -- 66
(There were 3 warnings)
