/var/lib/ghc/package.conf.d:
    Cabal-1.14.0
    Cabal-1.16.0.3
    Chart-0.14
    HTTP-4000.2.6
    QuickCheck-2.4.2
    QuickCheck-2.5.1.1
    array-0.4.0.0
    attoparsec-0.10.3.0
    attoparsec-enumerator-0.3.1
    base-4.5.1.0
    bin-package-db-0.0.0.0
    binary-0.5.1.0
    binary-shared-0.8.2
    bytestring-0.9.2.1
    cairo-0.12.4
    colour-2.3.3
    containers-0.4.2.1
    data-accessor-0.2.2.3
    data-accessor-template-0.2.1.10
    deepseq-1.3.0.0
    directory-1.1.0.2
    enumerator-0.4.19
    extensible-exceptions-0.1.1.4
    filepath-1.3.0.0
    (ghc-7.4.2)
    ghc-paths-0.1.0.9
    ghc-prim-0.2.0.0
    gio-0.12.4
    glade-0.12.1
    glib-0.12.4
    gtk-0.12.4
    gtksourceview2-0.12.3.1
    haddock-2.10.0
    (haskell2010-1.1.0.1)
    (haskell98-2.0.0.1)
    hmatrix-0.14.1.0
    hoopl-3.8.7.3
    hpc-0.5.1.1
    hslogger-1.1.0
    integer-gmp-0.4.0.0
    language-c-0.3.2.1
    leksah-0.12.1.3
    leksah-server-0.12.1.2
    ltk-0.12.1.0
    mtl-2.1.2
    ncurses-0.2.3
    network-2.4.1.0
    old-locale-1.0.0.4
    old-time-1.1.0.0
    pango-0.12.4
    parsec-3.1.3
    pretty-1.1.1.0
    primitive-0.5.0.1
    process-1.1.0.1
    random-1.0.1.1
    regex-base-0.93.2
    regex-tdfa-1.1.8
    rts-1.0
    storable-complex-0.2.1
    strict-0.3.2
    syb-0.3.7
    template-haskell-2.7.0.0
    terminfo-0.3.2.5
    text-0.11.2.3
    time-1.4
    transformers-0.3.0.0
    unix-2.5.1.1
    utf8-string-0.3.7
    utility-ht-0.0.8
    vector-0.10.0.1
    xhtml-3000.2.1
    zlib-0.5.3.3

/home/andrew/.ghc/x86_64-linux-7.4.2/package.conf.d:
    Boolean-0.2
    GLURaw-1.3.0.0
    MemoTrie-0.6.1
    MonadCatchIO-transformers-0.3.0.0
    MonadRandom-0.1.8
    NumInstances-1.0
    ObjectName-1.0.0.0
    OpenGL-2.6.0.1
    OpenGL-2.8.0.0
    OpenGLRaw-1.3.0.0
    StateVar-1.0.0.0
    Tensor-1.0.0.1
    active-0.1.0.4
    arithmoi-0.4.0.3
    bifunctors-3.2.0.1
    blaze-builder-0.3.1.1
    blaze-markup-0.5.1.5
    blaze-svg-0.3.3.0
    circle-packing-0.1.0.2
    cmdargs-0.10.2
    comonad-3.0.2
    comonad-transformers-3.0.1
    comonads-fd-3.0.1
    contravariant-0.4
    data-accessor-0.2.2.3
    data-default-0.5.1
    diagrams-0.6
    diagrams-cairo-0.6
    diagrams-contrib-0.6.1
    diagrams-core-0.6.0.2
    diagrams-lib-0.6.0.1
    diagrams-svg-0.6.0.1
    distributive-0.3.1
    dlist-0.5
    dual-tree-0.1.0.1
    force-layout-0.2
    generic-deriving-1.4.0
    groupoids-3.0.1.1
    hashable-1.2.0.5
    haskeline-0.7.0.3
    language-c-0.3.2.1
    lens-3.8.7.3
    monoid-extras-0.2.2.2
    nats-0.1
    newtype-0.2
    parallel-3.2.0.3
    primitive-0.5.0.1
    profunctor-extras-3.3
    profunctors-3.3
    reflection-1.1.7
    semigroupoid-extras-3.0.1
    semigroupoids-3.0.2
    semigroups-0.9
    split-0.2.1.2
    storable-complex-0.2.1
    syb-0.3.7
    tagged-0.4.5
    transformers-compat-0.1.1.1
    unordered-containers-0.2.3.0
    vector-0.10.0.1
    vector-space-0.8.6
    vector-space-points-0.1.2.0
    void-0.6

